[
{
    "model": "agenda.evento",
    "pk": 2,
    "fields": {
        "data": "2017-09-08",
        "link": "",
        "descricao": "Audi\u00eancia p\u00fablica para discutir os impactos das moedas virtuais, em especial o Bitcoins, na economia brasileira. Foram convidados, entre outros, o presidente do Banco Central, Ilan Goldfajn; e o secret\u00e1rio da Receita Federal do Brasil, Jorge Rachid.",
        "comissao": 5
    }
},
{
    "model": "agenda.evento",
    "pk": 3,
    "fields": {
        "data": "2017-09-13",
        "link": "",
        "descricao": "Audi\u00eancia p\u00fablica para discutir a liberdade de express\u00e3o e prote\u00e7\u00e3o de dados pessoais. Foram convidados representantes da Associa\u00e7\u00e3o Brasileira de Emissoras de R\u00e1dio e Televis\u00e3o (Abert), do Centro de Tecnologia e Sociedade da Funda\u00e7\u00e3o Get\u00falio Vargas - CTS/FGV, do F\u00f3rum Nacional pela Democratiza\u00e7\u00e3o da Comunica\u00e7\u00e3o - FNDC e da Associa\u00e7\u00e3o Brasileira de R\u00e1dio e Televis\u00e3o (Abratel).",
        "comissao": 6
    }
},
{
    "model": "agenda.evento",
    "pk": 4,
    "fields": {
        "data": "2017-09-12",
        "link": "",
        "descricao": "Audi\u00eancia P\u00fablica para debater a situa\u00e7\u00e3o dos Projetos Estrat\u00e9gicos das For\u00e7as Armadas, os programas de coopera\u00e7\u00e3o internacional do Brasil na \u00e1rea da Defesa e os planos do Ex\u00e9rcito para o desenvolvimento tecnol\u00f3gico neste setor. O Comandante do Ex\u00e9rcito Brasileiro estar\u00e1 presente.",
        "comissao": 7
    }
},
{
    "model": "agenda.evento",
    "pk": 5,
    "fields": {
        "data": "2017-09-11",
        "link": "",
        "descricao": "Semin\u00e1rio sobre \u201cTecnologia e Sa\u00fade P\u00fablica: solu\u00e7\u00f5es vi\u00e1veis para os desafios brasileiros\u201d. Entre outros, estar\u00e3o presentes representantes da IBM e da Comiss\u00e3o de Ci\u00eancia e Tecnologia da C\u00e2mara dos Deputados.",
        "comissao": 8
    }
}
]
