<?xml version="1.0" encoding="UTF-8"?>
<svg width="146px" height="126px" viewBox="0 0 146 126" version="1.1" xmlns="http://www.w3.org/2000/svg" xmlns:xlink="http://www.w3.org/1999/xlink">
    <!-- Generator: Sketch 44.1 (41455) - http://www.bohemiancoding.com/sketch -->
    <title>bull1icon</title>
    <desc>Created with Sketch.</desc>
    <defs></defs>
    <g id="Symbols" stroke="none" stroke-width="1" fill="none" fill-rule="evenodd">
        <g id="bull1" fill="#000000">
            <path d="M142.945,45.148 C140.908,43.112 138.45,42.093 135.57,42.093 L135.572,42.093 L135.572,10.807 C135.572,7.982 134.539,5.538 132.476,3.474 C130.413,1.41 127.966,0.378 125.142,0.378 C100.103,21.235 75.769,31.664 52.142,31.664 L13.036,31.664 C9.451,31.664 6.382,32.94 3.829,35.493 C1.276,38.047 0,41.116 0,44.7 L0,60.343 C0,63.928 1.274,66.997 3.827,69.55 C6.38,72.104 9.449,73.379 13.034,73.379 L22.974,73.379 C22.051,76.313 21.453,79.315 21.182,82.382 C20.911,85.451 20.816,88.125 20.897,90.407 C20.978,92.689 21.386,95.431 22.119,98.636 C22.852,101.84 23.477,104.257 23.993,105.886 C24.509,107.517 25.378,110.082 26.6,113.585 C27.822,117.089 28.623,119.465 29.003,120.714 C31.501,122.995 35.086,124.503 39.757,125.236 C44.429,125.967 49.005,125.656 53.486,124.298 C57.967,122.941 60.995,120.685 62.57,117.536 C60.506,115.906 58.836,114.535 57.56,113.421 C56.283,112.308 54.98,110.951 53.649,109.349 C52.318,107.747 51.409,106.253 50.92,104.868 C50.431,103.483 50.268,101.908 50.431,100.142 C50.594,98.376 51.219,96.597 52.305,94.806 C50.241,92.687 49.154,90.175 49.046,87.269 C48.938,84.364 49.78,81.634 51.572,79.081 C53.364,76.528 55.836,74.736 58.986,73.704 C80.442,75.496 102.493,85.816 125.143,104.664 C127.966,104.664 130.413,103.632 132.475,101.568 C134.539,99.505 135.571,97.059 135.571,94.235 L135.571,62.95 C138.451,62.95 140.909,61.932 142.946,59.895 C144.98,57.858 146,55.4 146,52.522 C146,49.643 144.98,47.185 142.945,45.148 L142.945,45.148 Z M125.143,91.303 C103.905,75.063 83.049,65.801 62.572,63.52 L62.572,41.522 C82.885,39.295 103.743,29.98 125.143,13.577 L125.143,91.303 L125.143,91.303 Z" id="Shape"></path>
        </g>
    </g>
</svg>