<?xml version="1.0" encoding="UTF-8"?>
<svg width="82px" height="48px" viewBox="0 0 82 48" version="1.1" xmlns="http://www.w3.org/2000/svg" xmlns:xlink="http://www.w3.org/1999/xlink">
    <!-- Generator: Sketch 44.1 (41455) - http://www.bohemiancoding.com/sketch -->
    <title>angle1icon</title>
    <desc>Created with Sketch.</desc>
    <defs></defs>
    <g id="Symbols" stroke="none" stroke-width="1" fill="none" fill-rule="evenodd">
        <g id="angle1" fill="#5256A0">
            <path d="M80.841,5.179 L76.768,1.106 C76.225,0.562 75.6,0.291 74.893,0.291 C74.188,0.291 73.563,0.562 73.02,1.106 L41,33.125 L8.981,1.107 C8.438,0.563 7.813,0.292 7.107,0.292 C6.401,0.292 5.776,0.563 5.233,1.107 L1.16,5.18 C0.616,5.723 0.345,6.348 0.345,7.054 C0.345,7.76 0.617,8.385 1.16,8.928 L39.126,46.895 C39.669,47.438 40.294,47.709 41,47.709 C41.706,47.709 42.33,47.438 42.873,46.895 L80.841,8.928 C81.384,8.385 81.654,7.76 81.654,7.054 C81.654,6.348 81.384,5.723 80.841,5.179 L80.841,5.179 Z" id="Shape"></path>
        </g>
    </g>
</svg>