<?xml version="1.0" encoding="UTF-8"?>
<svg width="136px" height="146px" viewBox="0 0 136 146" version="1.1" xmlns="http://www.w3.org/2000/svg" xmlns:xlink="http://www.w3.org/1999/xlink">
    <!-- Generator: Sketch 44.1 (41455) - http://www.bohemiancoding.com/sketch -->
    <title>calendar51icon</title>
    <desc>Created with Sketch.</desc>
    <defs></defs>
    <g id="Symbols" stroke="none" stroke-width="1" fill="none" fill-rule="evenodd">
        <g id="calendar51" fill="#5F63BC">
            <path d="M125.359,20.857 L114.931,20.857 L114.931,13.035 C114.931,9.451 113.654,6.382 111.101,3.829 C108.547,1.276 105.48,-0.001 101.894,-0.001 L96.681,-0.001 C93.095,-0.001 90.027,1.276 87.474,3.829 C84.92,6.382 83.644,9.451 83.644,13.035 L83.644,20.857 L52.359,20.857 L52.359,13.035 C52.359,9.451 51.082,6.382 48.529,3.829 C45.976,1.276 42.907,-0.001 39.322,-0.001 L34.108,-0.001 C30.523,-0.001 27.454,1.276 24.901,3.829 C22.348,6.382 21.071,9.451 21.071,13.035 L21.071,20.857 L10.643,20.857 C7.818,20.857 5.374,21.889 3.31,23.953 C1.246,26.017 0.214,28.462 0.214,31.286 L0.214,135.573 C0.214,138.396 1.246,140.84 3.31,142.905 C5.374,144.969 7.818,146.001 10.643,146.001 L125.357,146.001 C128.181,146.001 130.627,144.969 132.689,142.905 C134.753,140.841 135.785,138.396 135.785,135.573 L135.785,31.286 C135.785,28.461 134.754,26.017 132.691,23.953 C130.629,21.889 128.183,20.857 125.359,20.857 Z M94.073,13.036 C94.073,12.275 94.316,11.65 94.804,11.162 C95.292,10.674 95.917,10.429 96.679,10.429 L101.892,10.429 C102.654,10.429 103.277,10.673 103.767,11.162 C104.255,11.651 104.499,12.276 104.499,13.036 L104.499,36.5 C104.499,37.261 104.255,37.885 103.767,38.374 C103.277,38.862 102.654,39.107 101.892,39.107 L96.679,39.107 C95.917,39.107 95.292,38.863 94.804,38.374 C94.316,37.885 94.073,37.261 94.073,36.5 L94.073,13.036 L94.073,13.036 Z M31.501,13.036 C31.501,12.275 31.745,11.65 32.234,11.162 C32.723,10.674 33.347,10.429 34.108,10.429 L39.322,10.429 C40.083,10.429 40.708,10.673 41.196,11.162 C41.684,11.651 41.929,12.276 41.929,13.036 L41.929,36.5 C41.929,37.261 41.685,37.886 41.196,38.374 C40.707,38.862 40.083,39.107 39.322,39.107 L34.108,39.107 C33.347,39.107 32.722,38.863 32.234,38.374 C31.746,37.885 31.501,37.261 31.501,36.5 L31.501,13.036 L31.501,13.036 Z M125.357,135.572 L10.643,135.572 L10.643,52.143 L125.357,52.143 L125.357,135.572 L125.357,135.572 Z" id="Shape"></path>
        </g>
    </g>
</svg>