<?xml version="1.0" encoding="UTF-8"?>
<svg width="18px" height="17px" viewBox="0 0 18 17" version="1.1" xmlns="http://www.w3.org/2000/svg" xmlns:xlink="http://www.w3.org/1999/xlink">
    <!-- Generator: Sketch 44.1 (41455) - http://www.bohemiancoding.com/sketch -->
    <title>antena-robo</title>
    <desc>Created with Sketch.</desc>
    <defs></defs>
    <g id="Symbols" stroke="none" stroke-width="1" fill="none" fill-rule="evenodd">
        <g id="Menu" transform="translate(-118.000000, -22.000000)">
            <g id="antena-robo" transform="translate(118.000000, 22.000000)">
                <path d="M8.73571429,9.84285714 L8.73571429,3.27029125" id="Line" stroke="#000000" stroke-width="0.7" stroke-linecap="square"></path>
                <path d="M8.73046881,3.49776748 C9.69716094,3.49776748 10.5112175,2.72633891 10.5112175,1.77491034 C10.5112175,0.849196053 9.72260021,0.0263389096 8.80678661,0.000624623932 C7.84009448,-0.0250896618 7.02603795,0.74633891 7.00059868,1.72348177 C6.97515941,2.70062462 7.76377668,3.49776748 8.73046881,3.49776748 Z" id="Shape" fill="#000000" fill-rule="nonzero"></path>
                <path d="M6.00212224,13.4092628 C6.00212224,15.3869396 6.00171367,17.3646164 6.00253081,19.3422932 C6.00253081,20.0013519 6.01315357,20.6604106 6.00375651,21.3194693 C5.99640229,21.8222769 6.19782621,21.98604 6.57534285,21.9044089 C6.76410117,21.8638437 6.95449376,21.829789 7.1391664,21.7691917 C10.2254875,20.7560642 12.329203,17.2509338 12.2662836,13.2314772 C12.2058155,9.34974183 9.95133848,5.97331815 6.85153467,5.12094896 C6.03072199,4.89558695 6.0115193,4.89508615 6.00661649,5.9227369 C5.99476802,8.41824553 6.00253081,10.9137542 6.00212224,13.4092628" id="Fill-27" stroke="#000000" stroke-width="0.7" fill="#CED8DC" transform="translate(9.133829, 13.462182) rotate(-90.000000) translate(-9.133829, -13.462182) "></path>
            </g>
        </g>
    </g>
</svg>